%YAML 1.1
%TAG !u! tag:unity3d.com,2011:
--- !u!114 &11400000
MonoBehaviour:
  m_ObjectHideFlags: 0
  m_CorrespondingSourceObject: {fileID: 0}
  m_PrefabInstance: {fileID: 0}
  m_PrefabAsset: {fileID: 0}
  m_GameObject: {fileID: 0}
  m_Enabled: 1
  m_EditorHideFlags: 0
  m_Script: {fileID: 11500000, guid: cbb84318f715dcf478b7ed856ee1be42, type: 3}
  m_Name: SpawningData
  m_EditorClassIdentifier: 
  InitialRadius: 10
  Count: 5000
  CountPerSpawn: 250
  SpawnDuration: 20
  ExplosionForce: 10
